{"brands": {
"ABU":{	"name":"ABUniverse"						,	"imageUrl":"img/brands/ABU_logo.png"	,	"homepage":"https://us.abuniverse.com/"																				,	"countryIcon":"🇺🇸",	"country":"USA"				},
"ASC":{ "name":"Aww So Cute"	 				,	"imageUrl":"img/brands/ASC_logo.png"	,	"homepage":"https://www.awwsocute.com/diapers"																		,	"countryIcon":"🇺🇸",	"country":"USA"				},
"BAM":{	"name":"Bambino Diapers" 				,	"imageUrl":"img/brands/BAM_logo.png"	,	"homepage":"https://bambinodiapers.com/"																			,	"countryIcon":"🇺🇸",	"country":"USA"				},
"CDZ":{	"name":"Cuddlz"							,	"imageUrl":"img/brands/CDZ_logo.png"	,	"homepage":"https://www.cuddlz.com/adult-nappies-diapers/"															,	"countryIcon":"🇬🇧",	"country":"United Kingdom"	},
"CKZ":{	"name":"Crinklz" 						,	"imageUrl":"img/brands/CKZ_logo.png"	,	"homepage":"https://www.crinklz.com/eu/en/products/"																,	"countryIcon":"🇩🇪",	"country":"Germany"			},
"CTD":{	"name":"Changing Times Diaper Company"	,	"imageUrl":"img/brands/CTD_logo.png"	,	"homepage":"https://www.changingtimesdiaperco.com/collections/disposable-diapers-printed/products/bear-hugz-ol-10"	,	"countryIcon":"🇺🇸",	"country":"USA"				},
"DCO":{	"name":"Diaper Connoisseur"				,	"imageUrl":"img/brands/DCO_logo.png"	,	"homepage":"https://diaperconn.com/"																				,	"countryIcon":"🇺🇸", "country":"USA"				},
"DDC":{	"name":"The Dotty Diaper Company"	 	,	"imageUrl":"img/brands/DDC_logo.png"	,	"homepage":"https://www.thedottydiapercompany.co.uk/product-category/diapers/disposable-diapers/"					,	"countryIcon":"🇬🇧",	"country":"United Kingdom"	},
"FSH":{	"name":"Forsite Health"					, 	"imageUrl":"img/brands/FSH_logo.png"	,	"homepage":"http://www.forsitehealth.ca/incontinence.html"															,	"countryIcon":"🇨🇦",	"country":"Canada"			},
"LFB":{	"name":"Little For Big" 				,	"imageUrl":"img/brands/LFB_logo.png"	,	"homepage":"https://www.littleforbig.com/product-category/adult-diapers/"											,	"countryIcon":"🇺🇸",	"country":"USA"				},
"LLA":{	"name":"Cute Diaper (LLABDL)" 			,	"imageUrl":"img/brands/LLA_logo.png" 	,	"homepage":"http://www.llabdl.com/"																					,	"countryIcon":"🇨🇳",	"country":"China"			},
"NRU":{	"name":"Nappies R Us" 					,	"imageUrl":"img/brands/NRU_logo.png"	,	"homepage":"https://www.nappiesrus.co.uk/disposable-nappies/brands-e-l/nappiesrus-nru"								,	"countryIcon":"🇬🇧",	"country":"United Kingdom"	},
"QTY":{	"name":"Qtty Diapers"					,	"imageUrl":"img/brands/QTY_logo.png"	,	"homepage":"https://www.qttydiaper.com/product-category/diapers/"													,	"countryIcon":"??",	"country":"todo"	},
"RRZ":{	"name":"Rearz" 							,	"imageUrl":"img/brands/RRZ_logo.png"	,	"homepage":"https://rearz.ca/incontinence/incontinence-disposables/?_bc_fsnf=1&brand=331"							,	"countryIcon":"🇨🇦",	"country":"Canada"			},
"SXD":{	"name":"Save Express" 					,	"imageUrl":"img/brands/SXD_logo.png" 	,	"homepage":"https://www.saveexpress.de/de/inkontinenz-einweg?p=1&o=1&n=24&s=44"										,	"countryIcon":"🇩🇪",	"country":"Germany"			},
"TAN":{	"name":"TEN@NIGHT"						,	"imageUrl":"img/brands/TAN_logo.png"	,	"homepage":"https://www.amazon.com/stores/TEN%40NIGHT/page/27920BFD-8E01-4709-A871-B7ADF4BF0119"					,	"countryIcon":"??",	"country":"todo"	},
"TYK":{	"name":"Tykables"						,	"imageUrl":"img/brands/TYK_logo.png"	,	"homepage":"https://tykables.com/collections/diapers"																,	"countryIcon":"🇺🇸",	"country":"USA"				}



},
"diapers":{

"ABU_PEEKAB":	{"brand":"ABU"	,"name":"PeekABU"			,	"images":4	,	"url":"https://us.abuniverse.com/product/pab/"	, "sizes":["M","L","XL"]			},
"ABU_KIDDOA":	{"brand":"ABU"	,"name":"Kiddo by ABU"		,	"images":1	,	"url":"https://us.abuniverse.com/product/kdo/"	, "sizes":["S","M","L","XL"]		},
"ABU_SPACEA":	{"brand":"ABU"	,"name":"Space"				,	"images":3	,	"url":"https://us.abuniverse.com/product/spc/"	, "sizes":["S","M","L","XL"]		,	"artist": {"name": "Marci", "url":"http://www.theartofmarci.com/portfolio-public/graphic-design/"}},
"ABU_LIPAWZ":	{"brand":"ABU"	,"name":"Little Pawz"		,	"images":5	,	"url":"https://us.abuniverse.com/product/pwz/"	, "sizes":["S","S/M","M","L","XL"]	,	"artist": {"name": "Marci", "url":"http://www.theartofmarci.com/portfolio-public/graphic-design/"} },
"ABU_PRSCHO":	{"brand":"ABU"	,"name":"PreSchool"			,	"images":4	,	"url":"https://us.abuniverse.com/product/prs/"	, "sizes":["M","L","XL"]			},
"ABU_BARBUM":	{"brand":"ABU"	,"name":"BareBum"			,	"images":2	,	"url":"https://us.abuniverse.com/product/bbv/"	, "sizes":["M","L","XL"]			},
"ABU_CUSHIE":	{"brand":"ABU"	,"name":"Cushies"			,	"images":5	,	"url":"https://us.abuniverse.com/product/cus/"	, "sizes":["S","M","L","XL"]		},
"ABU_SUDRKI":	{"brand":"ABU"	,"name":"Super Dry Kids"	,	"images":5	,	"url":"https://us.abuniverse.com/product/sdk/"	, "sizes":["S","M","L","XL"]		},
"ABU_DNORWZ":	{"brand":"ABU"	,"name":"DinoRawZ"			,	"images":5	,	"url":"https://us.abuniverse.com/product/dno/"	, "sizes":["M","L","XL"]			},
"ABU_BUNHOP":	{"brand":"ABU"	,"name":"BunnyHopps"		,	"images":4	,	"url":"https://us.abuniverse.com/product/bny/"	, "sizes":["M","L","XL"]			},
"ABU_LAVEND":	{"brand":"ABU"	,"name":"Lavender"			,	"images":4	,	"url":"https://us.abuniverse.com/product/lav/"	, "sizes":["M","L","XL"]			},

"ASC_PITEBE":	{"brand":"ASC"	,"name":"Pink Teddy Bear"	,	"images":1	,	"url":"https://www.awwsocute.com/diapers/pink-teddy-bear-diapers"	,	"sizes":["S","M","L","XL", "?"]		},
"ASC_BLTEBE":	{"brand":"ASC"	,"name":"Blue Teddy Bear"	,	"images":1	,	"url":"https://www.awwsocute.com/diapers/blue-teddy-bear-diapers"	,	"sizes":["S","M","?"]		},

"BAM_BLLSM1":	{"brand":"BAM"	,"name":"Bellissimo"		,	"images":1	,	"url":"https://bambinodiapers.com/bellissimo"		,	"sizes":["M","L","XL"]	},
"BAM_BLLSM2":	{"brand":"BAM"	,"name":"Bellissimo V2"		,	"images":4	,	"url":"https://bambinodiapers.com/bellissimo-v2"	,	"sizes":["M","L","XL"]	},
"BAM_CLSSC1":	{"brand":"BAM"	,"name":"Classico"			,	"images":1	,	"url":"https://bambinodiapers.com/classico"			,	"sizes":["M","L"]		},
"BAM_CLSSC2":	{"brand":"BAM"	,"name":"Classico V2"		,	"images":1	,	"url":"https://bambinodiapers.com/classico-v2"		,	"sizes":["?"]			},
"BAM_TEDDY1":	{"brand":"BAM"	,"name":"Teddy"				,	"images":2	,	"url":"https://bambinodiapers.com/teddy"			,	"sizes":["M","L", "XL"]	},
"BAM_TEDDY2":	{"brand":"BAM"	,"name":"Teddy V2"			,	"images":5	,	"url":"https://bambinodiapers.com/teddy-v2"			,	"sizes":["M","L"]		},
"BAM_CLOUDE":	{"brand":"BAM"	,"name":"Cloudee"			,	"images":4	,	"url":"https://bambinodiapers.com/Cloudee"			,	"sizes":["M","L","XL"]	},
"BAM_MAGNFC":	{"brand":"BAM"	,"name":"Magnifico"			,	"images":5	,	"url":"https://bambinodiapers.com/magnifico"		,	"sizes":["S/M", "L/XL"]	},
"BAM_VALENT":	{"brand":"BAM"	,"name":"Valentine's Diaper",	"images":4	,	"url":"https://bambinodiapers.com/valentines"		,	"sizes":["S/M", "L/XL"]	},

"CDZ_RAIUNI":	{"brand":"CDZ"	,"name":"Rainbow Unicorn"	,	"images":2	,	"url":"https://www.cuddlz.com/cuddlz-one-tape-each-side-rainbow-unicorn-adult-nappies-diapers-size-medium/"	,	"sizes":["M", "L/XL"]	},
"CDZ_BRIDYZ":	{"brand":"CDZ"	,"name":"Bright Dayz"		,	"images":4	,	"url":"https://www.cuddlz.com/cuddlz-size-large-adult-bright-dayz-pattern-all-over-printed-nappy-diaper/"	,	"sizes":["L", "M"]		},
"CDZ_NURSRY":	{"brand":"CDZ"	,"name":"Nursery"			,	"images":3	,	"url":"https://www.cuddlz.com/cuddlz-size-large-adult-nursery-pattern-all-over-printed-nappy-diaper/"		,	"sizes":["L"]			},

"CKZ_CRNKLZ":	{"brand":"CKZ"	,"name":"Crinklz"			,	"images":6	,	"url":"https://www.crinklz.com/eu/en/products/3/box-crinklz-m"				,	"sizes":["S", "M", "L", "XL"]	,	"artist": {"name": "Marci", "url":"http://www.theartofmarci.com/portfolio-public/graphic-design/"}},
"CKZ_ASTRNT":	{"brand":"CKZ"	,"name":"Crinklz Astronaut"	,	"images":6	,	"url":"https://www.crinklz.com/eu/en/products/11/box-crinklz-astronaut-m"	,	"sizes":["M", "L"]				,	"artist": {"name": "Marci", "url":"http://www.theartofmarci.com/portfolio-public/graphic-design/"}},
"CKZ_AQUANT":	{"brand":"CKZ"	,"name":"Crinklz Aquanaut"	,	"images":6	,	"url":"https://www.crinklz.com/eu/en/products/13/box-crinklz-aquanaut-m"	,	"sizes":["M", "L"]				,	"artist": {"name": "Marci", "url":"http://www.theartofmarci.com/portfolio-public/graphic-design/"}},

"CTD_BEARHU":	{"brand":"CTD"	,"name":"Bear Hugz"	 		,	"images":1	,	"url":"https://www.changingtimesdiaperco.com/collections/disposable-diapers-printed/products/bear-hugz-ol-10"	,	"sizes":["M", "L"]	},

"DCO_DCARMR":	{"brand":"DCO"	,"name":"DC Armor"			,	"images":1	,	"url":"https://diaperconn.com/product.php?id_product=63"	,	"sizes":["S","M","L"]	},
"DCO_DCIDLY":	{"brand":"DCO"	,"name":"DC Idly"			,	"images":1	,	"url":"https://diaperconn.com/product.php?id_product=60"	,	"sizes":["M","L"]	},


"DDC_PRIDE2":	{"brand":"DDC"	,"name":"Pride 2.0"				,	"images":1	,	"url":"https://www.thedottydiapercompany.co.uk/product/pride-2-0/"				,	"sizes":["M", "L"]	},
"DDC_SUBOOM":	{"brand":"DDC"	,"name":"Super Boompa"			,	"images":1	,	"url":"https://www.thedottydiapercompany.co.uk/product/super-boompa/"			,	"sizes":["M", "L"]	},
"DDC_SDOTPO":	{"brand":"DDC"	,"name":"Super Dotty the Pony"	,	"images":1	,	"url":"https://www.thedottydiapercompany.co.uk/product/super-dotty-the-pony/"	,	"sizes":["M", "L"]	},

"_":	{"brand":""	,"name":""	,	"images":0	,	"url":""	,	"sizes":[]	},

"LFB_BCUTIE":	{"brand":"LFB"	,"name":"Baby Cuties"		,	"images":3	,	"url":"https://www.littleforbig.com/product/baby-cuties-adult-diapers-2-pieces-sample-packm-l/"		,	"sizes": ["M", "L"]	},
"LFB_VINTBA":	{"brand":"LFB"	,"name":"Vintage Baby"		,	"images":3	,	"url":"https://www.littleforbig.com/product/vintage-baby-adult-diapers-2-pieces-sample-packm-l/"	,	"sizes": ["M", "L"]	},
"LFB_LTRUNK":	{"brand":"LFB"	,"name":"Little Trunks"		,	"images":4	,	"url":"https://www.littleforbig.com/product/little-trunks-printed-adult-baby-diaper-2-pieces/"		,	"sizes": ["M", "L"]	},
"LFB_LFANTA":	{"brand":"LFB"	,"name":"Little Fantasy"	,	"images":3	,	"url":"https://www.littleforbig.com/product/little-fantasy-adult-diapers-2-pieces-sample-pack/"		,	"sizes": ["M", "L"] },
"LFB_LDREAM":	{"brand":"LFB"	,"name":"Little Dreamers"	,	"images":4	,	"url":"https://www.littleforbig.com/product/little-dreamers-adult-diapers-2-pieces-sample-pack/"	,	"sizes": ["M", "L"] },
"LFB_NURBLP":	{"brand":"LFB"	,"name":"Nursery Blue"		,	"images":3	,	"url":"https://www.littleforbig.com/product/nursery-blue-printed-adult-baby-diaper-2-pieces/"		,	"sizes": ["M", "L"] },
"LFB_NURPIP":	{"brand":"LFB"	,"name":"Nursery Pink"		,	"images":3	,	"url":"https://www.littleforbig.com/product/nursery-pink-printed-adult-baby-diaper-2-pieces/"		,	"sizes": ["M", "L"] },


"_":	{"brand":""	,"name":""	,	"images":0	,	"url":""	,	"sizes":[]	},

"_":	{"brand":""	,"name":""	,	"images":0	,	"url":""	,	"sizes":[]	}


}
}
